Exploratory data analysis – Estonian cancer data
…
download.file(url, "data/cancer_incidence_PK10.json")

Then we

# devtools::install_github("tpall/boulder")
library(boulder)
path <- "data/cancer_incidence_PK10.json"
incidence <- json_to_df(path)

## Data source is not Estonian Health Board, www.terviseamet.ee, but Estonian Cancer Registry.

incidence

## # A tibble: 2,190 x 24
##      Year
##    <fctr>
##  1   2000
##  2   2000
##  3   2000
##  4   2000
##  5   2000
##  6   2000
##  7   2000
##  8   2000
##  9   2000
## 10   2000
## # ... with 2,180 more rows, and 23 more variables: `Specified
## #   site` <fctr>, Sex <fctr>, `0-4` <int>, `5-9` <int>, `10-14` <int>,
## #   `15-19` <int>, `20-24` <int>, `25-29` <int>, `30-34` <int>,
## #   `35-39` <int>, `40-44` <int>, `45-49` <int>, `50-54` <int>,
## #   `55-59` <int>, `60-64` <int>, `65-69` <int>, `70-74` <int>,
## #   `75-79` <int>, `80-84` <int>, `85 and older` <int>, label <chr>,
## #   source <chr>, updated <chr>
…
