Exploratory data analysis
…
```
## Data source is Estonian Cancer Registry.
```

---

```r
filter(cases, str_length(`Specified site`)<20) # see note
```

```
## # A tibble: 660 x 24
##      Year    `Specified site`    Sex `0-4` `5-9` `10-14` `15-19` `20-24`
##    <fctr>              <fctr> <fctr> <int> <int>   <int>   <int>   <int>
##  1   2000         ..Lip (C00)    Men     0     0       0       0       0
##  2   2000         ..Lip (C00)  Women     0     0       0       0       0
##  3   2000   ..Tongue (C01-02)    Men     0     0       0       0       0
##  4   2000   ..Tongue (C01-02)  Women     0     0       0       0       0
##  5   2000 ..Nasopharynx (C11)    Men     0     0       0       0       0
##  6   2000 ..Nasopharynx (C11)  Women     1     0       0       0       0
##  7   2000  ..Oesophagus (C15)    Men     0     0       0       0       0
##  8   2000  ..Oesophagus (C15)  Women     0     0       0       0       0
##  9   2000     ..Stomach (C16)    Men     0     0       0       0       1
## 10   2000     ..Stomach (C16)  Women     0     0       0       0       0
## # ... with 650 more rows, and 16 more variables: `25-29` <int>,
## #   `30-34` <int>, `35-39` <int>, `40-44` <int>, `45-49` <int>,
## #   `50-54` <int>, `55-59` <int>, `60-64` <int>, `65-69` <int>,
## #   `70-74` <int>, `75-79` <int>, `80-84` <int>, `85 and older` <int>,
## #   label <chr>, source <chr>, updated <chr>
```
…
