Exploratory data analysis – Estonian cancer data
…
Then we import dataset using json_to_df() function from “boulder” library.

You can install “boulder” from github “tpall/boulder”: “boulder” package has few helper functions and was created to work specificly with Estonian Health Statistics and Health Research Database. However, “boulder” package is still under development and you should use it carefully.

# devtools::install_github("tpall/boulder")
library(boulder)
path <- "data/cancer_incidence_PK30.json"
## json_to_df warns when data is not from Estonian Health Board
incidence <- json_to_df(path)

## Data source is Estonian Cancer Registry.

incidence

## # A tibble: 2,190 x 24
##      Year
##    <fctr>
##  1   2000
##  2   2000
##  3   2000
##  4   2000
##  5   2000
##  6   2000
##  7   2000
##  8   2000
##  9   2000
## 10   2000
## # ... with 2,180 more rows, and 23 more variables: Site <fctr>,
## #   Sex <fctr>, `0-4` <dbl>, `5-9` <dbl>, `10-14` <dbl>, `15-19` <dbl>,
## #   `20-24` <dbl>, `25-29` <dbl>, `30-34` <dbl>, `35-39` <dbl>,
## #   `40-44` <dbl>, `45-49` <dbl>, `50-54` <dbl>, `55-59` <dbl>,
## #   `60-64` <dbl>, `65-69` <dbl>, `70-74` <dbl>, `75-79` <dbl>,
## #   `80-84` <dbl>, `85 and older` <dbl>, label <chr>, source <chr>,
## #   updated <chr>

Year, Site and Sex are factors. We convert Year to numeric and Site and Sex to character using parse_ functions from “readr” package.

## Year to numeric
incidence <- incidence %>% mutate_at("Year", parse_number)
## Site and Sex to character
incidence <- incidence %>% mutate_at(vars(Site, Sex), parse_character)
incidence

## # A tibble: 2,190 x 24
##     Year                                                              Site
##    <dbl>                                                             <chr>
##  1  2000                                 All malignant neoplasms (C00-C97)
##  2  2000                                 All malignant neoplasms (C00-C97)
##  3  2000 All malignant neoplasms except skin (other) (C00-C97, except C44)
##  4  2000 All malignant neoplasms except skin (other) (C00-C97, except C44)
##  5  2000                            Lip, oral cavity and pharynx (C00-C14)
##  6  2000                            Lip, oral cavity and pharynx (C00-C14)
##  7  2000                                                       ..Lip (C00)
##  8  2000                                                       ..Lip (C00)
##  9  2000                                                 ..Tongue (C01-02)
## 10  2000                                                 ..Tongue (C01-02)
## # ... with 2,180 more rows, and 22 more variables: Sex <chr>, `0-4` <dbl>,
## #   `5-9` <dbl>, `10-14` <dbl>, `15-19` <dbl>, `20-24` <dbl>,
## #   `25-29` <dbl>, `30-34` <dbl>, `35-39` <dbl>, `40-44` <dbl>,
## #   `45-49` <dbl>, `50-54` <dbl>, `55-59` <dbl>, `60-64` <dbl>,
## #   `65-69` <dbl>, `70-74` <dbl>, `75-79` <dbl>, `80-84` <dbl>, `85 and
## #   older` <dbl>, label <chr>, source <chr>, updated <chr>
…
Table metadata shows that values are age-specific incidence rate of malignant neoplasms per 100 000 inhabitants and originate from Estonian Cancer Registry and were last time updated in 2015-06-18.

Extract ICD10 codes. We use extract_icd() helper function from “boulder” package to extract ICD10 codes from Site variable.

## Extract ICD10 codes and keep them in a separate dataframe
icd10 <- mutate(incidence, 
                icd10 = map(Site, extract_icd)) %>% 
  select(Site, icd10)
## Let's have a look, for reviewing the result we filter only short strings, note that icd10 is list column (list of character vectors)
icd10 %>% filter(str_length(Site) < 30)

## # A tibble: 1,110 x 2
##                          Site      icd10
##                         <chr>     <list>
##  1                ..Lip (C00)  <chr [1]>
##  2                ..Lip (C00)  <chr [1]>
##  3          ..Tongue (C01-02)  <chr [2]>
##  4          ..Tongue (C01-02)  <chr [2]>
##  5        ..Nasopharynx (C11)  <chr [1]>
##  6        ..Nasopharynx (C11)  <chr [1]>
##  7 Digestive organs (C15-C26) <chr [12]>
##  8 Digestive organs (C15-C26) <chr [12]>
##  9         ..Oesophagus (C15)  <chr [1]>
## 10         ..Oesophagus (C15)  <chr [1]>
## # ... with 1,100 more rows

While we are on this, we also want to trim those offending dots from beginning of names. We use stri_trim_left() from “stringi” to trim all characters from the beginning of strings until first alphabetic character (?regex). To exclude table metadata constants, we use select() from “dplyr”.

## trim characters until first [[:alpha:]], we keep also original Site values in Site_old and remove constant columns from table
incidence <- mutate(incidence, 
                    Site_old = Site,
                    Site = stri_trim_left(Site, "[[:alpha:]]")) %>% 
  select(-label, -source, -updated)
## for reviewing the result we filter only short strings
incidence %>% 
  select(Site_old, Site) %>% 
  filter(str_length(Site_old) < 20)

## # A tibble: 660 x 2
##               Site_old              Site
##                  <chr>             <chr>
##  1         ..Lip (C00)         Lip (C00)
##  2         ..Lip (C00)         Lip (C00)
##  3   ..Tongue (C01-02)   Tongue (C01-02)
##  4   ..Tongue (C01-02)   Tongue (C01-02)
##  5 ..Nasopharynx (C11) Nasopharynx (C11)
##  6 ..Nasopharynx (C11) Nasopharynx (C11)
##  7  ..Oesophagus (C15)  Oesophagus (C15)
##  8  ..Oesophagus (C15)  Oesophagus (C15)
##  9     ..Stomach (C16)     Stomach (C16)
## 10     ..Stomach (C16)     Stomach (C16)
## # ... with 650 more rows

Table is in the wide format, we want to convert it into long/tidy format and filter out missing data.

Reshape data. Values are in the age group columns. We try to reshape table such as the age groups go into “age” column and values will be in the column called “incidence”. We use gather() from “tidyr” library to bring age group values into one column and incidence values into the other. Here we also need to supply the names of the value columns, otherwise gather() will put all categorical variables into the key column and all numeric values into value column.

## Let's look what happens when we run gather on our data
gather(incidence)

## # A tibble: 48,180 x 2
##      key value
##    <chr> <chr>
##  1  Year  2000
##  2  Year  2000
##  3  Year  2000
##  4  Year  2000
##  5  Year  2000
##  6  Year  2000
##  7  Year  2000
##  8  Year  2000
##  9  Year  2000
## 10  Year  2000
## # ... with 48,170 more rows
…
